[0] Config.pm:307> INFO - This is Biber 2.19
[0] Config.pm:310> INFO - Logfile is 'ATLAS-SUSY.bib.blg'
[27] biber-darwin:340> INFO - === Mo Aug 12, 2024, 13:46:58
[98] Utils.pm:410> ERROR - Cannot find 'ATLAS-SUSY.bib.bcf'!
[98] Biber.pm:136> INFO - ERRORS: 1
