\relax 
\providecommand*\new@tpo@label[2]{}
\providecommand\babel@aux[2]{}
\@nameuse{bbl@beforestart}
\providecommand\hyper@newdestlabel[2]{}
\providecommand\HyperFirstAtBeginDocument{\AtBeginDocument}
\HyperFirstAtBeginDocument{\ifx\hyper@anchor\@undefined
\global\let\oldnewlabel\newlabel
\gdef\newlabel#1#2{\newlabelxx{#1}#2}
\gdef\newlabelxx#1#2#3#4#5#6{\oldnewlabel{#1}{{#2}{#3}}}
\AtEndDocument{\ifx\hyper@anchor\@undefined
\let\newlabel\oldnewlabel
\fi}
\fi}
\global\let\hyper@last\relax 
\gdef\HyperFirstAtBeginDocument#1{#1}
\providecommand\HyField@AuxAddToFields[1]{}
\providecommand\HyField@AuxAddToCoFields[2]{}
\providecommand\BKM@entry[2]{}
\abx@aux@refcontext{none/global//global/global}
\babel@aux{UKenglish}{}
\BKM@entry{id=1,dest={636861707465722E31},srcline={108}}{5C3337365C3337375C303030315C3030305C3034305C303030495C3030306E5C303030745C303030725C3030306F5C303030645C303030755C303030635C303030745C303030695C3030306F5C3030306E}
\abx@aux@cite{0}{TRIG-2022-01}
\abx@aux@segm{0}{0}{TRIG-2022-01}
\abx@aux@cite{0}{HIGG-2018-04}
\abx@aux@segm{0}{0}{HIGG-2018-04}
\abx@aux@cite{0}{Aboelela:2875273}
\abx@aux@segm{0}{0}{Aboelela:2875273}
\@writefile{toc}{\contentsline {chapter}{\numberline {1}Introduction}{3}{chapter.1}\protected@file@percent }
\@writefile{lof}{\addvspace {10\p@ }}
\@writefile{lot}{\addvspace {10\p@ }}
\@writefile{lol}{\addvspace {10\p@ }}
\newlabel{sec:intro}{{1}{3}{Introduction}{chapter.1}{}}
\newlabel{sec:intro@cref}{{[chapter][1][]1}{[1][3][]3}}
\abx@aux@backref{1}{TRIG-2022-01}{0}{3}{3}
\abx@aux@backref{2}{HIGG-2018-04}{0}{3}{3}
\@writefile{lof}{\contentsline {figure}{\numberline {1.1}{\ignorespaces Feynman diagram of a Di-Higgs decay. The most likely decay channel of a Higgs boson is $H\rightarrow b\overline  {b}$.\relax }}{3}{figure.caption.2}\protected@file@percent }
\providecommand*\caption@xref[2]{\@setref\relax\@undefined{#1}}
\newlabel{f:DiHiggs}{{1.1}{3}{Feynman diagram of a Di-Higgs decay. The most likely decay channel of a Higgs boson is $H\rightarrow b\overline {b}$.\relax }{figure.caption.2}{}}
\newlabel{f:DiHiggs@cref}{{[figure][1][1]1.1}{[1][3][]3}}
\@writefile{lof}{\contentsline {figure}{\numberline {1.2}{\ignorespaces Possible final states in the detector. The left hand side shows a "signal" event with four jets coming from the same interaction. The event structure on the right hand side originates from pileup and should be identified as "background".\relax }}{4}{figure.caption.3}\protected@file@percent }
\newlabel{f:pr_basic}{{1.2}{4}{Possible final states in the detector. The left hand side shows a "signal" event with four jets coming from the same interaction. The event structure on the right hand side originates from pileup and should be identified as "background".\relax }{figure.caption.3}{}}
\newlabel{f:pr_basic@cref}{{[figure][2][1]1.2}{[1][4][]4}}
\abx@aux@backref{3}{Aboelela:2875273}{0}{4}{4}
\BKM@entry{id=2,dest={636861707465722E32},srcline={161}}{5C3337365C3337375C303030325C3030305C3034305C303030545C303030685C303030655C3030305C3034305C303030485C303030695C303030745C3030305A5C3030305C3034305C303030705C303030725C3030306F5C3030306A5C303030655C303030635C30303074}
\BKM@entry{id=3,dest={73656374696F6E2E322E31},srcline={169}}{5C3337365C3337375C303030325C3030302E5C303030315C3030305C3034305C303030485C303030695C303030745C3030305A5C3030305C3034305C303030415C303030725C303030635C303030685C303030695C303030745C303030655C303030635C303030745C303030755C303030725C30303065}
\abx@aux@cite{0}{Aboelela:2875273}
\abx@aux@segm{0}{0}{Aboelela:2875273}
\abx@aux@cite{0}{ATL-PHYS-PUB-2020-014}
\abx@aux@segm{0}{0}{ATL-PHYS-PUB-2020-014}
\abx@aux@cite{0}{ATL-PHYS-PUB-2020-014}
\abx@aux@segm{0}{0}{ATL-PHYS-PUB-2020-014}
\abx@aux@cite{0}{ATL-PHYS-PUB-2020-014}
\abx@aux@segm{0}{0}{ATL-PHYS-PUB-2020-014}
\abx@aux@cite{0}{ATL-PHYS-PUB-2022-027}
\abx@aux@segm{0}{0}{ATL-PHYS-PUB-2022-027}
\@writefile{toc}{\contentsline {chapter}{\numberline {2}The HitZ project}{5}{chapter.2}\protected@file@percent }
\@writefile{lof}{\addvspace {10\p@ }}
\@writefile{lot}{\addvspace {10\p@ }}
\@writefile{lol}{\addvspace {10\p@ }}
\newlabel{sec:overview}{{2}{5}{The HitZ project}{chapter.2}{}}
\newlabel{sec:overview@cref}{{[chapter][2][]2}{[1][5][]5}}
\@writefile{toc}{\contentsline {section}{\numberline {2.1}HitZ Architecture}{5}{section.2.1}\protected@file@percent }
\abx@aux@backref{4}{Aboelela:2875273}{0}{5}{5}
\abx@aux@backref{5}{ATL-PHYS-PUB-2020-014}{0}{5}{5}
\@writefile{lof}{\contentsline {figure}{\numberline {2.1}{\ignorespaces Architecture for the DIPS algorithm. The number of hidden units in the different neural network layers correspond to the final optimized architecture for the DIPS project. Source: \blx@tocontentsinit {0}\cite {ATL-PHYS-PUB-2020-014}\relax }}{5}{figure.caption.4}\protected@file@percent }
\abx@aux@backref{7}{ATL-PHYS-PUB-2020-014}{0}{5}{5}
\newlabel{f:dips}{{2.1}{5}{Architecture for the DIPS algorithm. The number of hidden units in the different neural network layers correspond to the final optimized architecture for the DIPS project. Source: \cite {ATL-PHYS-PUB-2020-014}\relax }{figure.caption.4}{}}
\newlabel{f:dips@cref}{{[figure][1][2]2.1}{[1][5][]5}}
\BKM@entry{id=4,dest={73656374696F6E2E322E32},srcline={201}}{5C3337365C3337375C303030325C3030302E5C303030325C3030305C3034305C303030495C3030306E5C303030705C303030755C303030745C3030305C3034305C303030565C303030615C303030725C303030695C303030615C303030625C3030306C5C303030655C30303073}
\@writefile{lof}{\contentsline {figure}{\numberline {2.2}{\ignorespaces Visualization of the hit selection. The hits have to pass a $\phi $ cut around the jet axis, in general the $N_{\mathrm  {hits}}$ closest hits to the jet axis are used.\relax }}{6}{figure.caption.5}\protected@file@percent }
\newlabel{f:hit-selection}{{2.2}{6}{Visualization of the hit selection. The hits have to pass a $\phi $ cut around the jet axis, in general the $N_{\mathrm {hits}}$ closest hits to the jet axis are used.\relax }{figure.caption.5}{}}
\newlabel{f:hit-selection@cref}{{[figure][2][2]2.2}{[1][6][]6}}
\abx@aux@backref{8}{ATL-PHYS-PUB-2022-027}{0}{6}{6}
\@writefile{toc}{\contentsline {section}{\numberline {2.2}Input Variables}{6}{section.2.2}\protected@file@percent }
\@writefile{lof}{\contentsline {figure}{\numberline {2.3}{\ignorespaces Visualization of the $jab$-coordinates. A hit is projected along the jet axis to the point of closest approach to the beam line.\relax }}{7}{figure.caption.6}\protected@file@percent }
\newlabel{f:jab-coordinates}{{2.3}{7}{Visualization of the $jab$-coordinates. A hit is projected along the jet axis to the point of closest approach to the beam line.\relax }{figure.caption.6}{}}
\newlabel{f:jab-coordinates@cref}{{[figure][3][2]2.3}{[1][7][]7}}
\BKM@entry{id=5,dest={636861707465722E33},srcline={256}}{5C3337365C3337375C303030335C3030305C3034305C3030304A5C303030655C303030745C3030302D5C303030625C303030795C3030302D5C3030304A5C303030655C303030745C3030305C3034305C303030505C303030655C303030725C303030665C3030306F5C303030725C3030306D5C303030615C3030306E5C303030635C30303065}
\BKM@entry{id=6,dest={73656374696F6E2E332E31},srcline={261}}{5C3337365C3337375C303030335C3030302E5C303030315C3030305C3034305C3030304A5C303030655C303030745C3030302D5C303030625C303030795C3030302D5C3030304A5C303030655C303030745C3030305C3034305C303030505C303030565C3030307A5C3030305C3034305C303030505C303030725C303030655C303030645C303030695C303030635C303030745C303030695C3030306F5C3030306E5C30303073}
\BKM@entry{id=7,dest={73656374696F6E2E332E32},srcline={283}}{5C3337365C3337375C303030335C3030302E5C303030325C3030305C3034305C3030304F5C303030625C303030735C303030655C303030725C303030765C303030615C303030625C3030306C5C303030655C3030305C3034305C303030445C303030655C303030705C303030655C3030306E5C303030645C303030655C3030306E5C303030635C30303079}
\@writefile{toc}{\contentsline {chapter}{\numberline {3}Jet-by-Jet Performance}{8}{chapter.3}\protected@file@percent }
\@writefile{lof}{\addvspace {10\p@ }}
\@writefile{lot}{\addvspace {10\p@ }}
\@writefile{lol}{\addvspace {10\p@ }}
\newlabel{sec:jetbyjet}{{3}{8}{Jet-by-Jet Performance}{chapter.3}{}}
\newlabel{sec:jetbyjet@cref}{{[chapter][3][]3}{[1][8][]8}}
\@writefile{toc}{\contentsline {section}{\numberline {3.1}Jet-by-Jet PV$z$ Predictions}{8}{section.3.1}\protected@file@percent }
\@writefile{toc}{\contentsline {section}{\numberline {3.2}Observable Dependency}{8}{section.3.2}\protected@file@percent }
\@writefile{lof}{\contentsline {figure}{\numberline {3.1}{\ignorespaces Network performance on a jet-by-jet basis. The upper left figure visualises $z_p$ and $z_t$ in a histogram, the upper right plot show the pull distribution $(z_t-z_p)/\sigma _p$. The lower plot shows some individual jet predictions alongside their truth-level values.\relax }}{9}{figure.caption.7}\protected@file@percent }
\newlabel{f:jet_by_jet_prediction}{{3.1}{9}{Network performance on a jet-by-jet basis. The upper left figure visualises $z_p$ and $z_t$ in a histogram, the upper right plot show the pull distribution $(z_t-z_p)/\sigma _p$. The lower plot shows some individual jet predictions alongside their truth-level values.\relax }{figure.caption.7}{}}
\newlabel{f:jet_by_jet_prediction@cref}{{[figure][1][3]3.1}{[1][8][]9}}
\@writefile{lof}{\contentsline {figure}{\numberline {3.2}{\ignorespaces $p_T$ dependency of the network predictions. The upper plots show the predicted PV$z$ against its truth value limited to a certain $p_T$ range in the jets ($40\pm 20$ GeV on the left; $120\pm 20$ GeV on the right). The lower plot shows the fraction of events which fulfill the condition $|z_t-z_p| < X\sigma _p$ (for $X\in (1,2,3,5)$) depending on $p_T$.\relax }}{10}{figure.caption.8}\protected@file@percent }
\newlabel{f:pt_dependency}{{3.2}{10}{$p_T$ dependency of the network predictions. The upper plots show the predicted PV$z$ against its truth value limited to a certain $p_T$ range in the jets ($40\pm 20$ GeV on the left; $120\pm 20$ GeV on the right). The lower plot shows the fraction of events which fulfill the condition $|z_t-z_p| < X\sigma _p$ (for $X\in (1,2,3,5)$) depending on $p_T$.\relax }{figure.caption.8}{}}
\newlabel{f:pt_dependency@cref}{{[figure][2][3]3.2}{[1][8][]10}}
\BKM@entry{id=8,dest={636861707465722E34},srcline={313}}{5C3337365C3337375C303030345C3030305C3034305C303030505C303030695C3030306C5C303030655C303030755C303030705C3030305C3034305C303030525C303030655C3030306A5C303030655C303030635C303030745C303030695C3030306F5C3030306E5C3030305C3034305C303030775C303030695C303030745C303030685C3030305C3034305C303030485C303030695C303030745C3030305A}
\BKM@entry{id=9,dest={73656374696F6E2E342E31},srcline={317}}{5C3337365C3337375C303030345C3030302E5C303030315C3030305C3034305C303030505C303030695C3030306C5C303030655C303030755C303030705C3030305C3034305C303030525C303030655C3030306A5C303030655C303030635C303030745C303030695C3030306F5C3030306E5C3030305C3034305C303030545C303030685C303030655C3030306F5C303030725C30303079}
\abx@aux@cite{0}{Aboelela:2875273}
\abx@aux@segm{0}{0}{Aboelela:2875273}
\abx@aux@cite{0}{Aboelela:2875273}
\abx@aux@segm{0}{0}{Aboelela:2875273}
\@writefile{toc}{\contentsline {chapter}{\numberline {4}Pileup Rejection with HitZ}{11}{chapter.4}\protected@file@percent }
\@writefile{lof}{\addvspace {10\p@ }}
\@writefile{lot}{\addvspace {10\p@ }}
\@writefile{lol}{\addvspace {10\p@ }}
\newlabel{sec:pileup}{{4}{11}{Pileup Rejection with HitZ}{chapter.4}{}}
\newlabel{sec:pileup@cref}{{[chapter][4][]4}{[1][11][]11}}
\@writefile{toc}{\contentsline {section}{\numberline {4.1}Pileup Rejection Theory}{11}{section.4.1}\protected@file@percent }
\abx@aux@backref{9}{Aboelela:2875273}{0}{11}{11}
\newlabel{eq:MLPL_params}{{4.3}{11}{Pileup Rejection Theory}{equation.4.1.3}{}}
\newlabel{eq:MLPL_params@cref}{{[equation][3][4]4.3}{[1][11][]11}}
\@writefile{lof}{\contentsline {figure}{\numberline {4.1}{\ignorespaces Event-by-Event pileup rejection algorithm. On the left an ideal case for a signal classification is shown, on the right a background classification. The central idea is to introduce a cut value, which is fine-tuned to keep the majority of the signal while rejecting a substantial amount of background.\relax }}{12}{figure.caption.9}\protected@file@percent }
\newlabel{f:pileup_rejection}{{4.1}{12}{Event-by-Event pileup rejection algorithm. On the left an ideal case for a signal classification is shown, on the right a background classification. The central idea is to introduce a cut value, which is fine-tuned to keep the majority of the signal while rejecting a substantial amount of background.\relax }{figure.caption.9}{}}
\newlabel{f:pileup_rejection@cref}{{[figure][1][4]4.1}{[1][11][]12}}
\BKM@entry{id=10,dest={73656374696F6E2E342E32},srcline={393}}{5C3337365C3337375C303030345C3030302E5C303030325C3030305C3034305C303030505C303030695C3030306C5C303030655C303030755C303030705C3030305C3034305C303030525C303030655C3030306A5C303030655C303030635C303030745C303030695C3030306F5C3030306E5C3030305C3034305C303030525C303030655C303030735C303030755C3030306C5C303030745C30303073}
\@writefile{lof}{\contentsline {figure}{\numberline {4.2}{\ignorespaces MLPL(4,5) visualisation. The best 4-jet combination of the five leading-$p_T$ jets is used to calculate the final discriminative value which decides whether the event passes the trigger.\relax }}{13}{figure.caption.10}\protected@file@percent }
\newlabel{f:MLPL}{{4.2}{13}{MLPL(4,5) visualisation. The best 4-jet combination of the five leading-$p_T$ jets is used to calculate the final discriminative value which decides whether the event passes the trigger.\relax }{figure.caption.10}{}}
\newlabel{f:MLPL@cref}{{[figure][2][4]4.2}{[1][13][]13}}
\abx@aux@backref{10}{Aboelela:2875273}{0}{13}{13}
\@writefile{toc}{\contentsline {section}{\numberline {4.2}Pileup Rejection Results}{13}{section.4.2}\protected@file@percent }
\BKM@entry{id=11,dest={73656374696F6E2E342E33},srcline={423}}{5C3337365C3337375C303030345C3030302E5C303030335C3030305C3034305C303030495C3030306E5C303030635C3030306C5C303030755C303030645C303030695C3030306E5C303030675C3030305C3034305C3030304C5C303030315C3030302D5C303030545C303030725C303030695C303030675C303030675C303030655C303030725C3030305C3034305C303030435C303030685C303030615C303030695C3030306E5C30303073}
\abx@aux@cite{0}{Aboelela:2875273}
\abx@aux@segm{0}{0}{Aboelela:2875273}
\@writefile{lof}{\contentsline {figure}{\numberline {4.3}{\ignorespaces Pileup rejection with the HitZ algorithm. The plot shows ROC curves of the HitZ algorithm with a different number of jets $m$ considered in the calculation of MLPL(4,$m$). It is visible that considering more jets results in a better background rejection. With a signal efficiency of 98\% a background rejection factor of 3-4 is possible.\relax }}{14}{figure.caption.11}\protected@file@percent }
\newlabel{f:ROC}{{4.3}{14}{Pileup rejection with the HitZ algorithm. The plot shows ROC curves of the HitZ algorithm with a different number of jets $m$ considered in the calculation of MLPL(4,$m$). It is visible that considering more jets results in a better background rejection. With a signal efficiency of 98\% a background rejection factor of 3-4 is possible.\relax }{figure.caption.11}{}}
\newlabel{f:ROC@cref}{{[figure][3][4]4.3}{[1][14][]14}}
\@writefile{toc}{\contentsline {section}{\numberline {4.3}Including L1-Trigger Chains}{14}{section.4.3}\protected@file@percent }
\@writefile{lof}{\contentsline {figure}{\numberline {4.4}{\ignorespaces Pileup rejection with the HitZ algorithm including a Level-1 trigger chain. The background rejection is strongly decreased due to the cut on low-$p_T$ jets.\relax }}{15}{figure.caption.12}\protected@file@percent }
\newlabel{f:L1_ROC}{{4.4}{15}{Pileup rejection with the HitZ algorithm including a Level-1 trigger chain. The background rejection is strongly decreased due to the cut on low-$p_T$ jets.\relax }{figure.caption.12}{}}
\newlabel{f:L1_ROC@cref}{{[figure][4][4]4.4}{[1][14][]15}}
\abx@aux@backref{11}{Aboelela:2875273}{0}{15}{15}
\BKM@entry{id=12,dest={636861707465722E35},srcline={457}}{5C3337365C3337375C303030355C3030305C3034305C303030465C303030755C303030725C303030745C303030685C303030655C303030725C3030305C3034305C303030415C303030705C303030705C3030306C5C303030695C303030635C303030615C303030745C303030695C3030306F5C3030306E5C303030735C3030305C3034305C3030306F5C303030665C3030305C3034305C303030485C303030695C303030745C3030302D5C3030306C5C303030655C303030765C303030655C3030306C5C3030305C3034305C303030495C3030306E5C303030665C3030306F5C303030725C3030306D5C303030615C303030745C303030695C3030306F5C3030306E}
\BKM@entry{id=13,dest={73656374696F6E2E352E31},srcline={466}}{5C3337365C3337375C303030355C3030302E5C303030315C3030305C3034305C303030465C303030615C303030735C303030745C3030305C3034305C303030525C3030304F5C303030495C3030302D5C303030745C303030725C303030615C303030635C3030306B5C303030695C3030306E5C30303067}
\@writefile{toc}{\contentsline {chapter}{\numberline {5}Further Applications of Hit-level Information}{16}{chapter.5}\protected@file@percent }
\@writefile{lof}{\addvspace {10\p@ }}
\@writefile{lot}{\addvspace {10\p@ }}
\@writefile{lol}{\addvspace {10\p@ }}
\newlabel{sec:furtherAppl}{{5}{16}{Further Applications of Hit-level Information}{chapter.5}{}}
\newlabel{sec:furtherAppl@cref}{{[chapter][5][]5}{[1][16][]16}}
\@writefile{toc}{\contentsline {section}{\numberline {5.1}Fast ROI-tracking}{16}{section.5.1}\protected@file@percent }
\@writefile{lof}{\contentsline {figure}{\numberline {5.1}{\ignorespaces Using the HitZ network to estimate the signal PV$z$. The displayed points represent several values of $X$.\relax }}{16}{figure.caption.13}\protected@file@percent }
\newlabel{f:PVz_eff}{{5.1}{16}{Using the HitZ network to estimate the signal PV$z$. The displayed points represent several values of $X$.\relax }{figure.caption.13}{}}
\newlabel{f:PVz_eff@cref}{{[figure][1][5]5.1}{[1][16][]16}}
\BKM@entry{id=14,dest={73656374696F6E2E352E32},srcline={499}}{5C3337365C3337375C303030355C3030302E5C303030325C3030305C3034305C303030625C3030302D5C303030745C303030615C303030675C303030675C303030695C3030306E5C30303067}
\abx@aux@cite{0}{ATL-PHYS-PUB-2020-014}
\abx@aux@segm{0}{0}{ATL-PHYS-PUB-2020-014}
\abx@aux@cite{0}{ATL-PHYS-PUB-2022-027}
\abx@aux@segm{0}{0}{ATL-PHYS-PUB-2022-027}
\abx@aux@cite{0}{ATL-PHYS-PUB-2022-027}
\abx@aux@segm{0}{0}{ATL-PHYS-PUB-2022-027}
\@writefile{toc}{\contentsline {section}{\numberline {5.2}$b$-tagging}{17}{section.5.2}\protected@file@percent }
\abx@aux@backref{12}{ATL-PHYS-PUB-2020-014}{0}{17}{17}
\abx@aux@backref{13}{ATL-PHYS-PUB-2022-027}{0}{17}{17}
\abx@aux@backref{14}{ATL-PHYS-PUB-2022-027}{0}{17}{17}
\@writefile{lof}{\contentsline {figure}{\numberline {5.2}{\ignorespaces Results of $b$-tagging on hit-level information. The plot on the left shows the discriminant likelihood ratio $D_b$ for $b$-jets, $c$-jets and light jets. The right hand plot shows the ROC curve which results from several cuts on $D_b$.\relax }}{17}{figure.caption.14}\protected@file@percent }
\newlabel{f:btag}{{5.2}{17}{Results of $b$-tagging on hit-level information. The plot on the left shows the discriminant likelihood ratio $D_b$ for $b$-jets, $c$-jets and light jets. The right hand plot shows the ROC curve which results from several cuts on $D_b$.\relax }{figure.caption.14}{}}
\newlabel{f:btag@cref}{{[figure][2][5]5.2}{[1][17][]17}}
\BKM@entry{id=15,dest={636861707465722E36},srcline={542}}{5C3337365C3337375C303030365C3030305C3034305C303030435C3030306F5C3030306E5C303030635C3030306C5C303030755C303030735C303030695C3030306F5C3030306E}
\@writefile{toc}{\contentsline {chapter}{\numberline {6}Conclusion}{19}{chapter.6}\protected@file@percent }
\@writefile{lof}{\addvspace {10\p@ }}
\@writefile{lot}{\addvspace {10\p@ }}
\@writefile{lol}{\addvspace {10\p@ }}
\newlabel{sec:conclusion}{{6}{19}{Conclusion}{chapter.6}{}}
\newlabel{sec:conclusion@cref}{{[chapter][6][]6}{[1][19][]19}}
\BKM@entry{id=16,open,dest={706172742A2E3137},srcline={589}}{5C3337365C3337375C303030415C303030705C303030705C303030655C3030306E5C303030645C303030695C303030635C303030655C30303073}
\BKM@entry{id=17,dest={617070656E6469782E41},srcline={593}}{5C3337365C3337375C303030415C3030305C3034305C3030304E5C303030655C303030745C303030775C3030306F5C303030725C3030306B5C3030305C3034305C303030505C303030615C303030725C303030615C3030306D5C303030655C303030745C303030655C303030725C30303073}
\@writefile{toc}{\contentsline {part}{Appendices}{22}{part*.17}\protected@file@percent }
\@writefile{toc}{\contentsline {chapter}{\numberline {A}Network Parameters}{22}{appendix.A}\protected@file@percent }
\@writefile{lof}{\addvspace {10\p@ }}
\@writefile{lot}{\addvspace {10\p@ }}
\@writefile{lol}{\addvspace {10\p@ }}
\newlabel{a:network_parameters}{{A}{22}{Network Parameters}{appendix.A}{}}
\newlabel{a:network_parameters@cref}{{[appendix][1][2147483647]A}{[1][22][]22}}
\BKM@entry{id=18,dest={617070656E6469782E42},srcline={698}}{5C3337365C3337375C303030425C3030305C3034305C303030435C303030615C3030306C5C303030635C303030755C3030306C5C303030615C303030745C303030695C3030306F5C3030306E5C3030305C3034305C3030306F5C303030665C3030305C3034305C3030306A5C303030615C303030625C3030302D5C303030635C3030306F5C3030306F5C303030725C303030645C303030695C3030306E5C303030615C303030745C303030655C30303073}
\@writefile{toc}{\contentsline {chapter}{\numberline {B}Calculation of $jab$-coordinates}{24}{appendix.B}\protected@file@percent }
\@writefile{lof}{\addvspace {10\p@ }}
\@writefile{lot}{\addvspace {10\p@ }}
\@writefile{lol}{\addvspace {10\p@ }}
\newlabel{a:jab-coordinates}{{B}{24}{Calculation of $jab$-coordinates}{appendix.B}{}}
\newlabel{a:jab-coordinates@cref}{{[appendix][2][2147483647]B}{[1][24][]24}}
\BKM@entry{id=19,dest={617070656E6469782E43},srcline={724}}{5C3337365C3337375C303030435C3030305C3034305C3030335C3236375C3030302D5C303030445C303030655C303030705C303030655C3030306E5C303030645C303030655C3030306E5C303030635C30303079}
\@writefile{toc}{\contentsline {chapter}{\numberline {C}$\eta $-Dependency}{25}{appendix.C}\protected@file@percent }
\@writefile{lof}{\addvspace {10\p@ }}
\@writefile{lot}{\addvspace {10\p@ }}
\@writefile{lol}{\addvspace {10\p@ }}
\newlabel{a:eta_dependency}{{C}{25}{$\eta $-Dependency}{appendix.C}{}}
\newlabel{a:eta_dependency@cref}{{[appendix][3][2147483647]C}{[1][25][]25}}
\@writefile{lof}{\contentsline {figure}{\numberline {C.1}{\ignorespaces $\eta $ dependency of the network predictions.\relax }}{25}{figure.caption.18}\protected@file@percent }
\newlabel{f:eta_dependency}{{C.1}{25}{$\eta $ dependency of the network predictions.\relax }{figure.caption.18}{}}
\newlabel{f:eta_dependency@cref}{{[figure][1][2147483647,3]C.1}{[1][25][]25}}
\BKM@entry{id=20,dest={617070656E6469782E44},srcline={744}}{5C3337365C3337375C303030445C3030305C3034305C3030304D5C3030306F5C3030306E5C303030745C303030655C3030305C3034305C303030435C303030615C303030725C3030306C5C3030306F5C3030305C3034305C303030525C303030655C303030775C303030655C303030695C303030675C303030685C303030745C303030695C3030306E5C30303067}
\@writefile{toc}{\contentsline {chapter}{\numberline {D}Monte Carlo Reweighting}{26}{appendix.D}\protected@file@percent }
\@writefile{lof}{\addvspace {10\p@ }}
\@writefile{lot}{\addvspace {10\p@ }}
\@writefile{lol}{\addvspace {10\p@ }}
\newlabel{a:mc_reweighting}{{D}{26}{Monte Carlo Reweighting}{appendix.D}{}}
\newlabel{a:mc_reweighting@cref}{{[appendix][4][2147483647]D}{[1][26][]26}}
\@writefile{lof}{\contentsline {figure}{\numberline {D.1}{\ignorespaces MLPL(4,All) distributions with and without reweighting.\relax }}{26}{figure.caption.19}\protected@file@percent }
\newlabel{f:MLPL_dist}{{D.1}{26}{MLPL(4,All) distributions with and without reweighting.\relax }{figure.caption.19}{}}
\newlabel{f:MLPL_dist@cref}{{[figure][1][2147483647,4]D.1}{[1][26][]26}}
\BKM@entry{id=21,dest={617070656E6469782E45},srcline={770}}{5C3337365C3337375C303030455C3030305C3034305C303030415C303030745C303030685C303030655C3030306E5C303030615C3030305C3034305C303030495C3030306D5C303030705C3030306C5C303030655C3030306D5C303030655C3030306E5C303030745C303030615C303030745C303030695C3030306F5C3030306E}
\@writefile{toc}{\contentsline {chapter}{\numberline {E}Athena Implementation}{27}{appendix.E}\protected@file@percent }
\@writefile{lof}{\addvspace {10\p@ }}
\@writefile{lot}{\addvspace {10\p@ }}
\@writefile{lol}{\addvspace {10\p@ }}
\newlabel{a:athena}{{E}{27}{Athena Implementation}{appendix.E}{}}
\newlabel{a:athena@cref}{{[appendix][5][2147483647]E}{[1][27][]27}}
\global\csname @altsecnumformattrue\endcsname
\abx@aux@read@bbl@mdfivesum{2207D45DF173D36BFB3DB9CD27916FD2}
\abx@aux@defaultrefcontext{0}{TRIG-2022-01}{none/global//global/global}
\abx@aux@defaultrefcontext{0}{HIGG-2018-04}{none/global//global/global}
\abx@aux@defaultrefcontext{0}{Aboelela:2875273}{none/global//global/global}
\abx@aux@defaultrefcontext{0}{ATL-PHYS-PUB-2020-014}{none/global//global/global}
\abx@aux@defaultrefcontext{0}{ATL-PHYS-PUB-2022-027}{none/global//global/global}
\global\@namedef{scr@dte@chapter@lastmaxnumwidth}{12.28583pt}
\global\@namedef{scr@dte@section@lastmaxnumwidth}{18.0674pt}
\@writefile{toc}{\providecommand\tocbasic@end@toc@file{}\tocbasic@end@toc@file}
\gdef \@abspage@last{28}
